[
	{
		"url_servidor":"http://localhost:8080/backendSisCalibration/",
		"url_cliente":"http://localhost/Calibration/",
		"url_archivo":"http://localhost/Calibration/",
		"socker":"ws://localhost:8080/backendSisCalibration/"
	}
]
