may 04, 2020 2:39:28 PM DB.Globales GuardarLogger
INFORMACIÓN: class DB.Cotizacion-->PrecioServicio
The column name precio1 was not found in this ResultSet.
-----------------------------------------------------------------------------------------------------

may 04, 2020 2:39:28 PM DB.Globales GuardarLogger
INFORMACIÓN: class DB.Cotizacion-->PrecioServicio
The column name precio1 was not found in this ResultSet.
-----------------------------------------------------------------------------------------------------

may 04, 2020 2:39:47 PM DB.Globales GuardarLogger
INFORMACIÓN: class DB.Cotizacion-->PrecioServicio
The column name precio1 was not found in this ResultSet.
-----------------------------------------------------------------------------------------------------

