may 04, 2020 1:00:01 PM DB.Globales GuardarLogger
INFORMACIÓN: class DB.Cotizacion-->PrecioServicio
The column name precio1 was not found in this ResultSet.
-----------------------------------------------------------------------------------------------------

may 04, 2020 1:00:01 PM DB.Globales GuardarLogger
INFORMACIÓN: class DB.Cotizacion-->PrecioServicio
The column name precio1 was not found in this ResultSet.
-----------------------------------------------------------------------------------------------------

