may 06, 2020 3:31:10 PM DB.Globales GuardarLogger
INFORMACIÓN: CONEXION A BASE DE DATOS
No suitable driver found for jdbc:postgresql://192.168.10.80:5432/calibracion
-----------------------------------------------------------------------------------------------------

