abr 28, 2020 12:59:27 PM DB.Globales GuardarLogger
INFORMACIÓN: class DB.Cotizacion-->PrecioServicio
The column name precio1 was not found in this ResultSet.
-----------------------------------------------------------------------------------------------------

