may 07, 2020 5:10:53 PM DB.Globales GuardarLogger
INFORMACIÓN: GUARDAR AUDITORIA
ERROR: column "eurides" does not exist
  Position: 83
 SQL: INSERT INTO seguridad.auditoria(idususario, modulo, accion, consulta, ip) VALUES (eurides,'MARCA','GUARDAR','INSERTANDO marcas (descripcion) VALUES (EURIDES2)','192.168.10.70')
-----------------------------------------------------------------------------------------------------

