abr 27, 2020 10:10:54 AM DB.Globales GuardarLogger
INFORMACIÓN: class DB.Cotizacion-->GuardarTmpCotizacion
ERROR: column "articulo" of relation "cotizacion_detalle" does not exist
  Position: 414
 SQL: INSERT INTO cotizacion_detalle(idcotizacion, idcliente, idequipo, idmodelo, idintervalo, idintervalo2, serie, idservicio, metodo, punto, direccion, declaracion,                      certificado, proxima, cantidad, observacion, descuento, costo, precio, idusuario, entrega, idproveedor, iva,ingreso,      idcontacto, idsede, remision, idserviciodep,nombreca, lote, idsolicitud, calibracionadic, precioadic, orden, articulo)  VALUES (0,11,0,0,0,0,'',17,0,'','','','','',1,'CODIGO: CONS-0000003, TIPO: SUMINISTRO, GRUPO: CONSUMIBLE, ARTICULO: SILICONA ROJA, MARCA: NO IDENTIFICABLE, MODELO: NO IDENTIFICABLE, PRESENTACION: NO DEFINIDA, CARACTERISTICA: NO DEFINIDA',0,0.0,0.0,3,0,0,19,0,1630,1052,0,99999,'',0,0,'',0.0,1405,341);
-----------------------------------------------------------------------------------------------------

