may 06, 2020 3:58:45 PM DB.Globales GuardarLogger
INFORMACIÓN: class DB.Cotizacion-->GuardarCotizacion
ERROR: syntax error at or near ","
  Position: 214
 SQL:  SELECT * FROM guardar_cotizacion(0,1,11,1052,1630,110000.0,0.0,0.0,110000.0,20900.0,130900.0,0.0,0.0,0.0,2065.0,0.0,0.0,2065.0,392.35,2457.35,0.0,0.0,0.0,'''ááááááá',3,0,'30 días calendarios desde su emisión.',1,,1,'PRUEBA DE FORMA DE PAGO CREDITO 1','PRUEBA DE PLAZO 1','PRUEBA DE CONDICION')
-----------------------------------------------------------------------------------------------------

