may 08, 2020 11:48:11 AM DB.Globales GuardarLogger
INFORMACIÓN: class DB.Cotizacion-->GuardarCotizacion
ERROR: value too long for type character varying(50)
  Where: SQL statement "UPDATE cotizacion SET idusuario = _usuario, idsede = _sede, idcontacto = _contacto, observacion = _observaciones, 
				total = _total, subtotal = _subtotal, descuento = _descuento, gravable = _gravable, exento = _exento, iva = _iva, retefuente=_retefuente, reteica=_reteica, reteiva=_reteiva,
				totalusd = _totalusd, subtotalusd = _subtotalusd, descuentousd = _descuentousd, gravableusd = _gravableusd, exentousd = _exentousd, ivausd = _ivausd, retefuenteusd=_retefuenteusd, reteicausd=_reteicausd, reteivausd=_reteivausd,
				fecha = now(), estado = 'Cotizado', solicitud = _solicitud,  validez = _validez,
				idempresa=_empresa, idlineanegocio = _lineanegocio, forma_pago =_forma_pago, plazo_entrega =_plazo_entrega, condicion_entrega = _condicion_entrega, licitacion = _licitacion
		WHERE id = _id"
PL/pgSQL function guardar_cotizacion(integer,integer,integer,integer,integer,double precision,double precision,double precision,double precision,double precision,double precision,double precision,double precision,double precision,double precision,double precision,double precision,double precision,double precision,double precision,double precision,double precision,double precision,text,integer,integer,character varying,integer,integer,character varying,character varying,character varying,character varying) line 70 at SQL statement
 SQL:  SELECT * FROM guardar_cotizacion(5503,1,11,1052,1630,100000.0,0.0,0.0,100000.0,19000.0,119000.0,0.0,0.0,0.0,2065.0,0.0,0.0,2065.0,392.35,2457.35,0.0,0.0,0.0,'%C3%A1%C3%A9%C3%AD%C3%B3%C3%BA%25%C3%91',3,0,'30%20d%C3%ADas%20calendarios%20desde%20su%20emisi%C3%B3n.',1,1,'PRUEBA%20DE%20FORMA%20DE%20PAGO%20CREDITO%201','PRUEBA%20DE%20PLAZO%201','PRUEBA%20DE%20CONDICION','')
-----------------------------------------------------------------------------------------------------

