may 06, 2020 11:00:22 AM DB.Globales GuardarLogger
INFORMACIÓN: CONEXION A BASE DE DATOS
No suitable driver found for jdbc:postgresql://192.168.10.80:5432/calibracion
-----------------------------------------------------------------------------------------------------

