may 06, 2020 11:02:57 AM DB.Globales GuardarLogger
INFORMACIÓN: ObtenerCombo
El índice de la columna está fuera de rango: 4, número de columnas: 2.
-----------------------------------------------------------------------------------------------------

