may 06, 2020 4:02:34 PM DB.Globales GuardarLogger
INFORMACIÓN: class DB.Cotizacion-->GuardarCotizacion
ERROR: column "_lineanegocio" does not exist
  Hint: Perhaps you meant to reference the column "cotizacion.idlineanegocio".
  Where: PL/pgSQL function guardar_cotizacion(integer,integer,integer,integer,integer,double precision,double precision,double precision,double precision,double precision,double precision,double precision,double precision,double precision,double precision,double precision,double precision,double precision,double precision,double precision,double precision,double precision,double precision,text,integer,integer,character varying,integer,integer,character varying,character varying,character varying) line 20 at SQL statement
 SQL:  SELECT * FROM guardar_cotizacion(0,1,11,1052,1630,110000.0,0.0,0.0,110000.0,20900.0,130900.0,0.0,0.0,0.0,2065.0,0.0,0.0,2065.0,392.35,2457.35,0.0,0.0,0.0,'´´´´áááááÂ´aá',3,0,'30 días calendarios desde su emisión.',1,1,'PRUEBA DE FORMA DE PAGO CREDITO 1','PRUEBA DE PLAZO 1','PRUEBA DE CONDICION')
-----------------------------------------------------------------------------------------------------

may 06, 2020 4:02:44 PM DB.Globales GuardarLogger
INFORMACIÓN: class DB.Cotizacion-->GuardarCotizacion
ERROR: column "_lineanegocio" does not exist
  Hint: Perhaps you meant to reference the column "cotizacion.idlineanegocio".
  Where: PL/pgSQL function guardar_cotizacion(integer,integer,integer,integer,integer,double precision,double precision,double precision,double precision,double precision,double precision,double precision,double precision,double precision,double precision,double precision,double precision,double precision,double precision,double precision,double precision,double precision,double precision,text,integer,integer,character varying,integer,integer,character varying,character varying,character varying) line 20 at SQL statement
 SQL:  SELECT * FROM guardar_cotizacion(0,1,11,1052,1630,110000.0,0.0,0.0,110000.0,20900.0,130900.0,0.0,0.0,0.0,2065.0,0.0,0.0,2065.0,392.35,2457.35,0.0,0.0,0.0,'´´´´áááááÂ´aá',3,0,'30 días calendarios desde su emisión.',1,1,'PRUEBA DE FORMA DE PAGO CREDITO 1','PRUEBA DE PLAZO 1','PRUEBA DE CONDICION')
-----------------------------------------------------------------------------------------------------

