abr 27, 2020 9:13:31 AM DB.Globales GuardarLogger
INFORMACIÓN: ObtenerCombo
ERROR: column "id" does not exist
  Position: 8
 SQL: SELECT id, razonsocial, razonsocial, case when estado = 1 then '' else 'false' end WHERE id > 0  ORDER BY 2 
-----------------------------------------------------------------------------------------------------

