abr 27, 2020 9:22:28 AM DB.Globales GuardarLogger
INFORMACIÓN: class DB.Cotizacion-->TemporalIngresoCotiz
ERROR: column reference "idarticulo" is ambiguous
  Position: 1847
 SQL: select json_agg(t.*) as json from (select orden, max(r.id) as id, r.lote, m.descripcion as magnitud, e.descripcion as equipo, ma.descripcion as marca, mo.descripcion as modelo,  case when r.idintervalo = 0 then 'VER ESPECIFICACIONES' ELSE '(' || mi.desde || ' a ' || mi.hasta || ') ' || mi.medida end || case when r.idintervalo2 = 0 then '' ELSE '<br>(' || mi2.desde || ' a ' || mi2.hasta || ') ' || mi2.medida END as Intervalos, r.observacion, sum(r.cantidad) as cantidad, r.serie,u.nombrecompleto as usuario,r.estado,  r.idintervalo, e.id as idequipo,  ma.id as idmarca, mo.id as idmodelo, r.ingreso, idserviciodep, to_char(fechareg,'dd/MM/yy') as fechaing,   r.idservicio, r.precio + precioadic as precio, r.descuento, r.punto, me.descripcion as metodo, r.direccion, coalesce(r.certificado,'') as certificado, r.proxima, r.declaracion, s.nombre as servicio, r.idcontacto, r.idsede, remision, entrega, p.nombrecompleto as proveedor, iva, (select max(fotos) from remision_detalle rd where rd.ingreso = r.ingreso) as fotos, r.nombreca, me.id as idmetodo, so.solicitud, to_char(so.fecha,'yyyy-MM-dd HH24:MI') as fechasoli,  '<b>Acreditado:</b> ' || sd.acreditado || '<br><b>Sitio:</b> ' || sd.sitio || '<br><b>Express:</b> ' || sd.express || '<br><b>SubContratado:</b> ' || sd.subcontratado as serviciosoli,  sd.id as idsolicitud, s.otro, (select concepto || case when coalesce(ajuste,'') <> '' then '<br><b>Ajuste:</b> ' || ajuste else '' end  || case when coalesce(suministro,'') <> '' then '<br><b>Suministro:</b> ' || suministro else '' end  || case when coalesce(observacion,'') <> '' then '<br><b>Observacion:</b> ' || observacion else '' end from reporte_ingreso ri WHERE ri.ingreso = r.ingreso and ri.estado <> 'Anulado' and r.ingreso > 0 order by ri.id DESC LIMIT 1) as reporte, calibracionadic, coalesce(r.idproveedor,0) as idproveedor, idarticulo  from cotizacion_detalle r inner join equipo e on r.idequipo = e.id  inner join magnitudes m on m.id = e.idmagnitud inner join seguridad.rbac_usuario u on u.idusu = r.idusuario inner join magnitud_intervalos mi on mi.id = r.idintervalo inner join magnitud_intervalos mi2 on mi2.id = r.idintervalo2 left join web.solicitud_detalle sd on sd.id = r.idsolicitud left join web.solicitud so on so.solicitud = sd.solicitud left join metodo me on me.id = r.metodo left join servicio s on s.id = r.idservicio left join modelos mo on mo.id = r.idmodelo  left join marcas ma on ma.id = mo.idmarca left join proveedores p on p.id = r.idproveedor    where r.idcliente = 1470 and idserviciodep = 0 and  idcotizacion = 0GROUP BY orden, m.descripcion, r.idarticulo, r.metodo, e.descripcion, ma.descripcion, mo.descripcion, r.idintervalo, mi.medida, mi.desde, mi.hasta, mi2.medida, mi2.desde, mi2.hasta, r.observacion, r.serie,u.nombrecompleto, r.estado,  r.idintervalo2, r.idproveedor, r.idintervalo, e.id,  ma.id, mo.id, r.ingreso, idserviciodep, fechareg,   r.idservicio, r.precio, r.descuento, r.punto, me.descripcion, r.direccion, r.certificado, r.proxima, r.declaracion,  s.nombre, r.idcontacto, r.idsede, remision, entrega, p.nombrecompleto, iva, lote,  r.nombreca, me.id, so.solicitud, so.fecha, sd.sitio, sd.express, sd.subcontratado, sd.id, s.otro, calibracionadic, precioadic UNION select orden, r.id, lote, m.descripcion as magnitud, e.descripcion as equipo, ma.descripcion as marca, mo.descripcion as modelo,   case when r.idintervalo = 0 then 'VER ESPECIFICACIONES' ELSE '(' || mi.desde || ' a ' || mi.hasta || ') ' || mi.medida end || case when r.idintervalo2 = 0 then '' ELSE '<br>(' || mi2.desde || ' a ' || mi2.hasta || ') ' || mi2.medida END as Intervalos, observacion, r.cantidad, r.serie,u.nombrecompleto as usuario,r.estado,  r.idintervalo, e.id as idequipo,  ma.id as idmarca, mo.id as idmodelo, ingreso, idserviciodep, to_char(fechareg,'dd/MM/yy') as fechaing,   r.idservicio, r.precio, r.descuento, '' as punto, '' as metodo, '' as direccion, '' as certificado, '' as proxima, '' as declaracion, s.descripcion as servicio, idcontacto, idsede, remision, entrega, '' as proveedor, iva, (select max(fotos) from remision_detalle rd where rd.ingreso = r.ingreso) as fotos, coalesce(nombreca,'') as nombreca,0 as idmetodo,  0 as solicitud, '' as fechasoli, '' as serviciosoli, 0 as idsolicitud, 0 as otro,  (select concepto || case when coalesce(ajuste,'') <> '' then '<br><b>Ajuste:</b> ' || ajuste else '' end                  || case when coalesce(suministro,'') <> '' then '<br><b>Suministro:</b> ' || suministro else '' end                  || case when coalesce(observacion,'') <> '' then '<br><b>Observacion:</b> ' || observacion else '' end from reporte_ingreso ri WHERE ri.ingreso = r.ingreso and r.ingreso > 0 order by ri.id DESC LIMIT 1) as reporte, '' as calibracionadic,0 as idproveedor, idarticulo from cotizacion_detalle r inner join equipo e on r.idequipo = e.id 				                     inner join magnitudes m on m.id = e.idmagnitud                             inner join seguridad.rbac_usuario u on u.idusu = r.idusuario                            inner join otros_servicios s on s.id = r.idservicio inner join magnitud_intervalos mi on mi.id = r.idintervalo inner join magnitud_intervalos mi2 on mi2.id = r.idintervalo2                      left join modelos mo on mo.id = r.idmodelo                       left join marcas ma on ma.id = mo.idmarca  where idcliente = 1470 and idserviciodep > 0 and  idcotizacion = 0 order by orden, id) as t
-----------------------------------------------------------------------------------------------------

