may 08, 2020 6:06:06 PM DB.Globales GuardarLogger
INFORMACIÓN: CONEXION A BASE DE DATOS
No suitable driver found for jdbc:postgresql://192.168.10.80:5432/calibracion
-----------------------------------------------------------------------------------------------------

