may 11, 2020 12:36:25 PM DB.Globales GuardarLogger
INFORMACIÓN: CONEXION A BASE DE DATOS
No suitable driver found for jdbc:postgresql://localhost:5432/calibracion
-----------------------------------------------------------------------------------------------------

